Calculate access to pre-kindergarten Predictor, Place-level
…
rm(acs_clean)

Check that each place has joined to many ACS records. We select the largest 486 places in our crosswalk, all 486 unique places should be connected to multiple records.

Code

acs_crosswalked %>% 
  group_by(place, statefip) %>% 
  count()

# A tibble: 535 x 3
# Groups:   place, statefip [535]
   place statefip     n
   <chr> <chr>    <int>
 1 00562 06         178
 2 00884 06         122
 3 01000 36          74
 4 01000 39         509
 5 01000 48         474
 6 01000 51         159
 7 01924 48         320
 8 02000 06        1629
 9 02000 35         512
10 02000 42         105
# i 525 more rows
…
Code

acs_crosswalked <- acs_crosswalked %>% 
  filter(afact > 0)

Adjust the person weight to account for PUMA-to-place mapping (those where the PUMA is not entirely inside the place).

Code

select(acs_crosswalked, perwt, repwtp1, repwtp80, afact)

# A tibble: 216,844 x 4
   perwt repwtp1 repwtp80  afact
   <dbl>   <dbl>    <dbl>  <dbl>
 1    23      25       21 0.688 
 2     8       7       16 1     
 3    22      23       36 0.0001
 4    22      23       36 0.687 
 5    22      23       36 0.0001
 6     9      17       16 0.0005
 7     9      17       16 1.00  
 8    10       9       12 0.259 
 9    10       9       12 0.032 
10    38      36       65 0.998 
# i 216,834 more rows

Code

acs_crosswalked <- acs_crosswalked %>%
  mutate(perwt = perwt * afact) %>% 
  mutate(across(matches("repwtp[0-9]+"), ~.x * afact))

select(acs_crosswalked, perwt, repwtp1, repwtp80, afact) 

# A tibble: 216,844 x 4
     perwt repwtp1 repwtp80  afact
     <dbl>   <dbl>    <dbl>  <dbl>
 1 15.8    17.2     14.5    0.688 
 2  8       7       16      1     
 3  0.0022  0.0023   0.0036 0.0001
 4 15.1    15.8     24.7    0.687 
 5  0.0022  0.0023   0.0036 0.0001
 6  0.0045  0.0085   0.008  0.0005
 7  9.00   17.0     16.0    1.00  
 8  2.59    2.33     3.11   0.259 
 9  0.32    0.288    0.384  0.032 
10 37.9    35.9     64.9    0.998 
# i 216,834 more rows
…
