Neonatal Health
…
In the 2022 and 2023 CDC WONDER data, Connecticut’s outdated 8 counties are still used (09001, 09003, 09005, 09007, 09009, 09011, 09013, 09015), but in Urban’s universe of counties the updated 9 planning regions are used (09110, 09120, 09130, 09140, 09150, 09160, 09170, 09180, 09190). CDC WONDER intends to move to the updated planning regions in the future, so we leave these years as missing until that transition takes place.

master_births_clean |>
  filter(state=="09") |>
  select(year, state, county)

# A tibble: 72 × 3
    year state county
   <dbl> <chr> <chr> 
 1  2016 09    001   
 2  2016 09    003   
 3  2016 09    005   
 4  2016 09    007   
 5  2016 09    009   
 6  2016 09    011   
 7  2016 09    013   
 8  2016 09    015   
 9  2016 09    999   
10  2017 09    001   
# ℹ 62 more rows
…
