College Readiness Predictor, County-level
…
Also filter out cases where AFACT is equal to zero. These cases will not be counted in the metric calculation.

Code

acs_crosswalked <- acs_crosswalked %>% 
  filter(afact > 0)

Adjust the person weight to account for PUMA-to-county mapping (those where the PUMA is not entirely inside the county).

Code

select(acs_crosswalked, perwt, repwtp1, repwtp80, afact)

# A tibble: 884,718 x 4
   perwt repwtp1 repwtp80 afact
   <dbl>   <dbl>    <dbl> <dbl>
 1    21      22       22 1    
 2     8       1        8 1    
 3    15      28        3 1    
 4     5       5        4 0.400
 5     5       5        4 0.600
 6     6      11        0 1    
 7    12      21       21 1    
 8    24      45       26 1    
 9    27       8        7 1    
10     8      14       15 1    
# i 884,708 more rows

Code

acs_crosswalked <- acs_crosswalked %>%
  mutate(perwt = perwt * afact) %>% 
  mutate(across(matches("repwtp[0-9]+"), ~.x * afact))
select(acs_crosswalked, perwt, repwtp1, repwtp80, afact) 

# A tibble: 884,718 x 4
   perwt repwtp1 repwtp80 afact
   <dbl>   <dbl>    <dbl> <dbl>
 1 21      22       22    1    
 2  8       1        8    1    
 3 15      28        3    1    
 4  2.00    2.00     1.60 0.400
 5  3.00    3.00     2.40 0.600
 6  6      11        0    1    
 7 12      21       21    1    
 8 24      45       26    1    
 9 27       8        7    1    
10  8      14       15    1    
# i 884,708 more rows
…
