College Readiness Predictor, Place-level
…
Also filter out cases where AFACT is equal to zero. These cases will not be counted in the metric calculation.

Code

acs_crosswalked <- acs_crosswalked %>% 
  filter(afact > 0)

Adjust the person weight to account for PUMA-to-place mapping (those where the PUMA is not entirely inside the place).

Code

select(acs_crosswalked, perwt, repwtp1, repwtp80, afact)

# A tibble: 255,521 x 4
   perwt repwtp1 repwtp80  afact
   <dbl>   <dbl>    <dbl>  <dbl>
 1    38      77       36 0.381 
 2    30       8       25 0.0411
 3    22       7        7 0.0393
 4    20       4       22 0.971 
 5    11      12        3 0.381 
 6    16      16       27 0.802 
 7    26       7       57 0.0828
 8    76     123       67 0.971 
 9     7      13       11 0.0425
10     7      13       11 0.0819
# i 255,511 more rows

Code

acs_crosswalked <- acs_crosswalked %>%
  mutate(perwt = perwt * afact) %>% 
  mutate(across(matches("repwtp[0-9]+"), ~.x * afact))
select(acs_crosswalked, perwt, repwtp1, repwtp80, afact) 

# A tibble: 255,521 x 4
    perwt repwtp1 repwtp80  afact
    <dbl>   <dbl>    <dbl>  <dbl>
 1 14.5    29.3     13.7   0.381 
 2  1.23    0.329    1.03  0.0411
 3  0.865   0.275    0.275 0.0393
 4 19.4     3.88    21.4   0.971 
 5  4.19    4.57     1.14  0.381 
 6 12.8    12.8     21.6   0.802 
 7  2.15    0.580    4.72  0.0828
 8 73.8   119.      65.0   0.971 
 9  0.298   0.552    0.468 0.0425
10  0.573   1.06     0.901 0.0819
# i 255,511 more rows
…
