Access to pre-kindergarten Predictor, County-level
…
Code

acs_crosswalked <- acs_crosswalked %>% 
  filter(afact > 0)

Adjust the person weight to account for PUMA-to-county mapping (those where the PUMA is not entirely inside the county).

Code

select(acs_crosswalked, perwt, repwtp1, repwtp80, afact)

# A tibble: 753,038 x 4
   perwt repwtp1 repwtp80  afact
   <dbl>   <dbl>    <dbl>  <dbl>
 1    19      20       31 0.350 
 2    19      20       31 0.551 
 3    19      20       31 0.0992
 4     9      10       20 0.350 
 5     9      10       20 0.551 
 6     9      10       20 0.0992
 7    33      56       10 1     
 8     3       3        2 0.400 
 9     3       3        2 0.600 
10    23      25       21 1     
# i 753,028 more rows

Code

acs_crosswalked <- acs_crosswalked %>%
  mutate(perwt = perwt * afact) %>% 
  mutate(across(matches("repwtp[0-9]+"), ~.x * afact))

select(acs_crosswalked, perwt, repwtp1, repwtp80, afact) 

# A tibble: 753,038 x 4
    perwt repwtp1 repwtp80  afact
    <dbl>   <dbl>    <dbl>  <dbl>
 1  6.64    6.99    10.8   0.350 
 2 10.5    11.0     17.1   0.551 
 3  1.88    1.98     3.08  0.0992
 4  3.15    3.50     6.99  0.350 
 5  4.96    5.51    11.0   0.551 
 6  0.893   0.992    1.98  0.0992
 7 33      56       10     1     
 8  1.20    1.20     0.799 0.400 
 9  1.80    1.80     1.20  0.600 
10 23      25       21     1     
# i 753,028 more rows
…
