College Readiness Predictor, County-level
…
Also filter out cases where AFACT is equal to zero. These cases will not be counted in the metric calculation.

Code

acs_crosswalked <- acs_crosswalked %>% 
  filter(afact > 0)

Adjust the person weight to account for PUMA-to-county mapping (those where the PUMA is not entirely inside the county).

Code

select(acs_crosswalked, perwt, repwtp1, repwtp80, afact)

# A tibble: 1,725,386 x 4
   perwt repwtp1 repwtp80  afact
   <dbl>   <dbl>    <dbl>  <dbl>
 1    51      79       75 0.307 
 2    51      79       75 0.446 
 3    51      79       75 0.0635
 4    51      79       75 0.184 
 5    10      18       10 1     
 6    17       1       30 0.188 
 7    17       1       30 0.0749
 8    17       1       30 0.147 
 9    17       1       30 0.226 
10    17       1       30 0.364 
# i 1,725,376 more rows

Code

acs_crosswalked <- acs_crosswalked %>%
  mutate(perwt = perwt * afact) %>% 
  mutate(across(matches("repwtp[0-9]+"), ~.x * afact))
select(acs_crosswalked, perwt, repwtp1, repwtp80, afact) 

# A tibble: 1,725,386 x 4
   perwt repwtp1 repwtp80  afact
   <dbl>   <dbl>    <dbl>  <dbl>
 1 15.6  24.2       23.0  0.307 
 2 22.7  35.2       33.4  0.446 
 3  3.24  5.02       4.76 0.0635
 4  9.40 14.6       13.8  0.184 
 5 10    18         10    1     
 6  3.20  0.188      5.66 0.188 
 7  1.27  0.0749     2.25 0.0749
 8  2.50  0.147      4.42 0.147 
 9  3.84  0.226      6.77 0.226 
10  6.18  0.364     10.9  0.364 
# i 1,725,376 more rows
…
