College Readiness Predictor, Place-level
…
Also filter out cases where AFACT is equal to zero. These cases will not be counted in the metric calculation.

Code

acs_crosswalked <- acs_crosswalked %>% 
  filter(afact > 0)

Adjust the person weight to account for PUMA-to-place mapping (those where the PUMA is not entirely inside the place).

Code

select(acs_crosswalked, perwt, repwtp1, repwtp80, afact)

# A tibble: 253,803 x 4
   perwt repwtp1 repwtp80  afact
   <dbl>   <dbl>    <dbl>  <dbl>
 1    20      36       39 0.514 
 2     1       1        2 0.0531
 3     1       1        2 0.284 
 4    19      19        1 0.887 
 5    16      31       15 0.837 
 6    19      20        2 0.514 
 7    19      20       35 0.0531
 8    19      20       35 0.284 
 9    18      18       18 0.752 
10    16      31       33 0.514 
# i 253,793 more rows

Code

acs_crosswalked <- acs_crosswalked %>%
  mutate(perwt = perwt * afact) %>% 
  mutate(across(matches("repwtp[0-9]+"), ~.x * afact))
select(acs_crosswalked, perwt, repwtp1, repwtp80, afact) 

# A tibble: 253,803 x 4
     perwt repwtp1 repwtp80  afact
     <dbl>   <dbl>    <dbl>  <dbl>
 1 10.3    18.5      20.0   0.514 
 2  0.0531  0.0531    0.106 0.0531
 3  0.284   0.284     0.568 0.284 
 4 16.9    16.9       0.887 0.887 
 5 13.4    25.9      12.6   0.837 
 6  9.76   10.3       1.03  0.514 
 7  1.01    1.06      1.86  0.0531
 8  5.40    5.68      9.95  0.284 
 9 13.5    13.5      13.5   0.752 
10  8.22   15.9      17.0   0.514 
# i 253,793 more rows
…
Code

metrics_education_sub %>% 
  filter(subgroup != "All") %>% 
  group_by(year, subgroup) %>% 
  summarise(suppressed = sum(is.na(share_hs_degree)),
            total = n(),
            suppressed_share = suppressed/total)

# A tibble: 40 x 5
# Groups:   year [5]
    year subgroup                    suppressed total suppressed_share
   <dbl> <chr>                            <int> <int>            <dbl>
 1  2014 Black, Non-Hispanic                368   486           0.757 
 2  2014 Female                             121   486           0.249 
 3  2014 Hispanic                           281   486           0.578 
 4  2014 Male                               100   486           0.206 
 5  2014 Other Races and Ethnicities        391   486           0.805 
 6  2014 White, Non-Hispanic                150   486           0.309 
 7  2014 With Disability                    447   486           0.920 
 8  2014 Without Disability                  18   486           0.0370
 9  2016 Black, Non-Hispanic                345   486           0.710 
10  2016 Female                              51   486           0.105 
# i 30 more rows
…
