Access to pre-kindergarten Predictor, County-level
…
Code

acs_crosswalked <- acs_crosswalked %>% 
  filter(afact > 0)

Adjust the person weight to account for PUMA-to-county mapping (those where the PUMA is not entirely inside the county).

Code

select(acs_crosswalked, perwt, repwtp1, repwtp80, afact)

# A tibble: 706,422 x 4
   perwt repwtp1 repwtp80  afact
   <dbl>   <dbl>    <dbl>  <dbl>
 1     4       5        5 0.256 
 2     4       5        5 0.137 
 3     4       5        5 0.0883
 4     4       5        5 0.518 
 5    26      27       27 1     
 6     4       1        7 0.256 
 7     4       1        7 0.137 
 8     4       1        7 0.0883
 9     4       1        7 0.518 
10     7       2       11 1     
# i 706,412 more rows

Code

acs_crosswalked <- acs_crosswalked %>%
  mutate(perwt = perwt * afact) %>% 
  mutate(across(matches("repwtp[0-9]+"), ~.x * afact))

select(acs_crosswalked, perwt, repwtp1, repwtp80, afact) 

# A tibble: 706,422 x 4
    perwt repwtp1 repwtp80  afact
    <dbl>   <dbl>    <dbl>  <dbl>
 1  1.03   1.28      1.28  0.256 
 2  0.547  0.684     0.684 0.137 
 3  0.353  0.442     0.442 0.0883
 4  2.07   2.59      2.59  0.518 
 5 26     27        27     1     
 6  1.03   0.256     1.80  0.256 
 7  0.547  0.137     0.958 0.137 
 8  0.353  0.0883    0.618 0.0883
 9  2.07   0.518     3.63  0.518 
10  7      2        11     1     
# i 706,412 more rows
…
Code

metrics_education_sub %>% 
  filter(subgroup != "All") %>% 
  group_by(year, subgroup) %>% 
  summarise(suppressed = sum(is.na(share_in_preschool)),
            total = n(),
            suppressed_share = suppressed/total)

# A tibble: 24 x 5
# Groups:   year [4]
    year subgroup                    suppressed total suppressed_share
   <dbl> <chr>                            <int> <int>            <dbl>
 1  2014 $50,000 or More                   2138  3143            0.680
 2  2014 Black, Non-Hispanic               2914  3143            0.927
 3  2014 Hispanic                          2863  3143            0.911
 4  2014 Less than $50,000                 2261  3143            0.719
 5  2014 Other Races and Ethnicities       2953  3143            0.940
 6  2014 White, Non-Hispanic               1849  3143            0.588
 7  2016 $50,000 or More                   2050  3143            0.652
 8  2016 Black, Non-Hispanic               2913  3143            0.927
 9  2016 Hispanic                          2835  3143            0.902
10  2016 Less than $50,000                 2247  3143            0.715
# i 14 more rows
…
