Access to pre-kindergarten Predictor, Place-level
…
rm(acs_clean)

Check that each place has joined to many ACS records. We select the largest 486 places in our crosswalk, all 486 unique places should be connected to multiple records.

Code

acs_crosswalked %>% 
  group_by(place, statefip) %>% 
  count()

# A tibble: 536 x 3
# Groups:   place, statefip [536]
   place statefip     n
   <chr> <chr>    <int>
 1 00562 06         452
 2 00884 06         284
 3 01000 36         165
 4 01000 39        1237
 5 01000 48        1200
 6 01000 51         481
 7 01924 48         933
 8 02000 06        3880
 9 02000 35        1200
10 02000 42         198
# i 526 more rows
…
Code

acs_crosswalked <- acs_crosswalked %>% 
  filter(afact > 0)

Adjust the person weight to account for PUMA-to-county mapping (those where the PUMA is not entirely inside the county).

Code

select(acs_crosswalked, perwt, repwtp1, repwtp80, afact)

# A tibble: 526,377 x 4
   perwt repwtp1 repwtp80  afact
   <dbl>   <dbl>    <dbl>  <dbl>
 1    82      84      139 0.0079
 2    82      84      139 0.118 
 3   117     102      134 0.0079
 4   117     102      134 0.118 
 5    13      23       23 0.105 
 6   121      34      143 0.112 
 7    92      98       78 0.0828
 8    77     141       68 0.971 
 9    78     100      112 0.971 
10   127      99      133 0.381 
# i 526,367 more rows

Code

acs_crosswalked <- acs_crosswalked %>%
  mutate(perwt = perwt * afact) %>% 
  mutate(across(matches("repwtp[0-9]+"), ~.x * afact))

select(acs_crosswalked, perwt, repwtp1, repwtp80, afact) 

# A tibble: 526,377 x 4
    perwt repwtp1 repwtp80  afact
    <dbl>   <dbl>    <dbl>  <dbl>
 1  0.648   0.664     1.10 0.0079
 2  9.64    9.87     16.3  0.118 
 3  0.924   0.806     1.06 0.0079
 4 13.7    12.0      15.7  0.118 
 5  1.36    2.41      2.41 0.105 
 6 13.6     3.82     16.1  0.112 
 7  7.62    8.11      6.46 0.0828
 8 74.8   137.       66.0  0.971 
 9 75.7    97.1     109.   0.971 
10 48.3    37.7      50.6  0.381 
# i 526,367 more rows
…
