Access to pre-kindergarten Predictor, County-level
…
Code

acs_crosswalked <- acs_crosswalked %>% 
  filter(afact > 0)

Adjust the person weight to account for PUMA-to-county mapping (those where the PUMA is not entirely inside the county).

Code

select(acs_crosswalked, perwt, repwtp1, repwtp80, afact)

# A tibble: 1,879,201 x 4
   perwt repwtp1 repwtp80  afact
   <dbl>   <dbl>    <dbl>  <dbl>
 1    80      84       24 0.167 
 2    80      84       24 0.32  
 3    80      84       24 0.0661
 4    80      84       24 0.115 
 5    80      84       24 0.154 
 6    80      84       24 0.0774
 7    80      84       24 0.100 
 8    82      84      139 1     
 9   117     102      134 1     
10    13      23       23 0.214 
# i 1,879,191 more rows

Code

acs_crosswalked <- acs_crosswalked %>%
  mutate(perwt = perwt * afact) %>% 
  mutate(across(matches("repwtp[0-9]+"), ~.x * afact))

select(acs_crosswalked, perwt, repwtp1, repwtp80, afact) 

# A tibble: 1,879,201 x 4
    perwt repwtp1 repwtp80  afact
    <dbl>   <dbl>    <dbl>  <dbl>
 1  13.4    14.1      4.02 0.167 
 2  25.6    26.9      7.68 0.32  
 3   5.29    5.55     1.59 0.0661
 4   9.21    9.67     2.76 0.115 
 5  12.3    12.9      3.69 0.154 
 6   6.19    6.50     1.86 0.0774
 7   8.04    8.44     2.41 0.100 
 8  82      84      139    1     
 9 117     102      134    1     
10   2.78    4.92     4.92 0.214 
# i 1,879,191 more rows
…
