county_construct-databases_race-share
…
db_quality <- db %>%
  select(ends_with("_quality"))

db_bounds <- db %>%
  select(ends_with("_ub"), ends_with("_lb"))

Code

db_values %>%
  #filter(!is.na(share_debt_coll)) %>%
  assert(within_bounds(0, 1), share_debt_col) %>%
  assert(within_bounds(0, 100), transportation_cost, index_transit_trips, air_quality_index)

# A tibble: 40,846 × 9
    year state county subgroup_type  subgroup share_debt_col transportation_cost
   <dbl> <chr> <chr>  <chr>          <chr>             <dbl>               <dbl>
 1  2014 01    001    all            All                  NA                  NA
 2  2014 01    001    race-ethnicity Majorit…             NA                  NA
 3  2014 01    001    race-ethnicity Majorit…             NA                  NA
 4  2014 01    001    race-ethnicity Mixed R…             NA                  NA
 5  2014 01    003    all            All                  NA                  NA
 6  2014 01    003    race-ethnicity Majorit…             NA                  NA
 7  2014 01    003    race-ethnicity Majorit…             NA                  NA
 8  2014 01    003    race-ethnicity Mixed R…             NA                  NA
 9  2014 01    005    all            All                  NA                  NA
10  2014 01    005    race-ethnicity Majorit…             NA                  NA
# ℹ 40,836 more rows
# ℹ 2 more variables: index_transit_trips <dbl>, air_quality_index <dbl>

Test confidence interval bounds.

Code

 db %>%
  verify(is.na(share_debt_col) | share_debt_col_lb < share_debt_col) %>%
  verify(is.na(share_debt_col) | share_debt_col_lb < share_debt_col_ub) %>%
  verify(is.na(share_debt_col) | share_debt_col < share_debt_col_ub)

# A tibble: 40,846 × 15
    year state county subgroup_type  subgroup   share_debt_col share_debt_col_ub
   <dbl> <chr> <chr>  <chr>          <chr>               <dbl>             <dbl>
 1  2014 01    001    all            All                    NA                NA
 2  2014 01    001    race-ethnicity Majority …             NA                NA
 3  2014 01    001    race-ethnicity Majority …             NA                NA
 4  2014 01    001    race-ethnicity Mixed Rac…             NA                NA
 5  2014 01    003    all            All                    NA                NA
 6  2014 01    003    race-ethnicity Majority …             NA                NA
 7  2014 01    003    race-ethnicity Majority …             NA                NA
 8  2014 01    003    race-ethnicity Mixed Rac…             NA                NA
 9  2014 01    005    all            All                    NA                NA
10  2014 01    005    race-ethnicity Majority …             NA                NA
# ℹ 40,836 more rows
# ℹ 8 more variables: share_debt_col_lb <dbl>, share_debt_col_quality <dbl>,
#   transportation_cost <dbl>, index_transit_trips <dbl>,
#   transportation_cost_quality <dbl>, index_transit_trips_quality <dbl>,
#   air_quality_index <dbl>, air_quality_index_quality <dbl>

Code

db_quality %>%
  assert(in_set(1, 2, 3), everything())

# A tibble: 40,846 × 4
   share_debt_col_quality transportation_cost_quality index_transit_trips_qual…¹
                    <dbl>                       <dbl>                      <dbl>
 1                     NA                          NA                         NA
 2                     NA                          NA                         NA
 3                     NA                          NA                         NA
 4                     NA                          NA                         NA
 5                     NA                          NA                         NA
 6                     NA                          NA                         NA
 7                     NA                          NA                         NA
 8                     NA                          NA                         NA
 9                     NA                          NA                         NA
10                     NA                          NA                         NA
# ℹ 40,836 more rows
# ℹ abbreviated name: ¹​index_transit_trips_quality
# ℹ 1 more variable: air_quality_index_quality <dbl>
…
