place_construct-databases_race-ethnicity
…
Code

db %>%
  select(ends_with("_quality")) %>%
  pivot_longer(everything(), names_to = "variable", values_to = "quality") %>%
  count(variable, quality)

# A tibble: 24 × 3
   variable              quality     n
   <chr>                   <dbl> <int>
 1 homeless_quality            1  2857
 2 homeless_quality            2    99
 3 homeless_quality            3   477
 4 homeless_quality           NA 20867
 5 pctl_income_quality         1   878
 6 pctl_income_quality         2   979
 7 pctl_income_quality         3    87
 8 pctl_income_quality        NA 22356
 9 rate_learning_quality       1  2308
10 rate_learning_quality       2   355
# ℹ 14 more rows
…
Code

value_col_names <- colnames(db_values)
share_cols <- value_col_names[grepl("share_", value_col_names)]
count_cols <- value_col_names[grepl("count_", value_col_names)]

db_values %>%
  assert(within_bounds(0, 1), starts_with("share_")) %>%
  assert(within_bounds(0, 100000), all_of(count_cols)) %>%
  assert(within_bounds(-2.5, 10), rate_learning) %>%
  assert(within_bounds(0, 15000000), starts_with("pctl_income")) %>%
  assert(within_bounds(0, 100000), count_homeless)

# A tibble: 24,300 × 17
   state place state_name place_name     population  year subgroup_type subgroup
   <chr> <chr> <chr>      <chr>               <dbl> <dbl> <chr>         <chr>   
 1 01    03076 Alabama    Auburn city         76143  2013 all           All     
 2 01    03076 Alabama    Auburn city         76143  2013 race-ethnici… Black, …
 3 01    03076 Alabama    Auburn city         76143  2013 race-ethnici… Hispanic
 4 01    03076 Alabama    Auburn city         76143  2013 race-ethnici… Other R…
 5 01    03076 Alabama    Auburn city         76143  2013 race-ethnici… White, …
 6 01    07000 Alabama    Birmingham ci…     200733  2013 all           All     
 7 01    07000 Alabama    Birmingham ci…     200733  2013 race-ethnici… Black, …
 8 01    07000 Alabama    Birmingham ci…     200733  2013 race-ethnici… Hispanic
 9 01    07000 Alabama    Birmingham ci…     200733  2013 race-ethnici… Other R…
10 01    07000 Alabama    Birmingham ci…     200733  2013 race-ethnici… White, …
# ℹ 24,290 more rows
# ℹ 9 more variables: share_in_preschool <dbl>, rate_learning <dbl>,
#   share_hs_degree <dbl>, pctl_income_20 <dbl>, pctl_income_50 <dbl>,
#   pctl_income_80 <dbl>, count_homeless <dbl>, share_homeless <dbl>,
#   share_employed <dbl>

Test confidence interval bounds.

Code

db %>%
  verify(is.na(rate_learning) | rate_learning_lb < rate_learning) %>%
  verify(is.na(rate_learning) | rate_learning_lb < rate_learning_ub) %>%
  verify(is.na(rate_learning) | rate_learning < rate_learning_ub)

# A tibble: 24,300 × 27
   state place state_name place_name     population  year subgroup_type subgroup
   <chr> <chr> <chr>      <chr>               <dbl> <dbl> <chr>         <chr>   
 1 01    03076 Alabama    Auburn city         76143  2013 all           All     
 2 01    03076 Alabama    Auburn city         76143  2013 race-ethnici… Black, …
 3 01    03076 Alabama    Auburn city         76143  2013 race-ethnici… Hispanic
 4 01    03076 Alabama    Auburn city         76143  2013 race-ethnici… Other R…
 5 01    03076 Alabama    Auburn city         76143  2013 race-ethnici… White, …
 6 01    07000 Alabama    Birmingham ci…     200733  2013 all           All     
 7 01    07000 Alabama    Birmingham ci…     200733  2013 race-ethnici… Black, …
 8 01    07000 Alabama    Birmingham ci…     200733  2013 race-ethnici… Hispanic
 9 01    07000 Alabama    Birmingham ci…     200733  2013 race-ethnici… Other R…
10 01    07000 Alabama    Birmingham ci…     200733  2013 race-ethnici… White, …
# ℹ 24,290 more rows
# ℹ 19 more variables: share_in_preschool <dbl>,
#   share_in_preschool_quality <dbl>, rate_learning <dbl>,
#   rate_learning_lb <dbl>, rate_learning_ub <dbl>,
#   rate_learning_quality <dbl>, share_hs_degree <dbl>,
#   share_hs_degree_quality <dbl>, pctl_income_20 <dbl>, pctl_income_50 <dbl>,
#   pctl_income_80 <dbl>, pctl_income_quality <dbl>, count_homeless <dbl>, …

Code

#Problem to be debugged here:
# db %>%
#   verify(is.na(count_homeless) | count_homeless_lb <= count_homeless) %>%
#   verify(is.na(count_homeless) | count_homeless_lb <= count_homeless_ub) %>%
#   verify(is.na(count_homeless) | count_homeless <= count_homeless_ub)

Code

db_quality %>%
  assert(in_set(1, 2, 3), everything())

# A tibble: 24,300 × 6
   share_in_preschool_quality rate_learning_quality share_hs_degree_quality
                        <dbl>                 <dbl>                   <dbl>
 1                         NA                    NA                      NA
 2                         NA                    NA                      NA
 3                         NA                    NA                      NA
 4                         NA                    NA                      NA
 5                         NA                    NA                      NA
 6                         NA                    NA                      NA
 7                         NA                    NA                      NA
 8                         NA                    NA                      NA
 9                         NA                    NA                      NA
10                         NA                    NA                      NA
# ℹ 24,290 more rows
# ℹ 3 more variables: pctl_income_quality <dbl>, homeless_quality <dbl>,
#   share_employed_quality <dbl>
…
