place_construct-databases_race
…
db_bounds <- db %>%
  select(ends_with("_ub"), ends_with("_lb"))

Code

value_col_names <- colnames(db_values)
share_cols <- value_col_names[grepl("share_", value_col_names)]
count_cols <- value_col_names[grepl("count_", value_col_names)]

db_values %>%
  ### All columns with prefixes count or share
  assert(within_bounds(0, 1), all_of(share_cols)) %>%
  assert(within_bounds(0, Inf), all_of(count_cols))

# A tibble: 2,430 × 7
    year state place subgroup_type subgroup share_digital_access rate_juv_arrest
   <dbl> <chr> <chr> <chr>         <chr>                   <dbl>           <dbl>
 1  2021 01    03076 all           All                     0.851            309.
 2  2021 01    03076 race-ethnici… Other R…                0.900              0 
 3  2021 01    03076 race-ethnici… Black                   0.740           1446.
 4  2021 01    03076 race-ethnici… Hispanic                0.852              0 
 5  2021 01    03076 race-ethnici… White                   0.871            122.
 6  2021 01    07000 all           All                     0.788            487.
 7  2021 01    07000 race-ethnici… Other R…                0.853              0 
 8  2021 01    07000 race-ethnici… Black                   0.778            561.
 9  2021 01    07000 race-ethnici… Hispanic                0.795            233.
10  2021 01    07000 race-ethnici… White                   0.799            347.
# ℹ 2,420 more rows

Test confidence interval bounds.

Code

db_quality %>%
  assert(in_set(1, 2, 3), everything())

# A tibble: 2,430 × 2
   share_digital_access_quality rate_juv_arrest_quality
                          <dbl>                   <dbl>
 1                            1                       2
 2                            1                       2
 3                            1                       2
 4                            2                       2
 5                            1                       2
 6                            1                       2
 7                            2                       2
 8                            1                       2
 9                            1                       2
10                            1                       2
# ℹ 2,420 more rows
…
