Employment Opportunities Predictor, Place-level, Subgroups
…
rm(acs_clean)

Check that each place has joined to many ACS records. We select the largest 486 places in our crosswalk, all 486 unique places should be connected to multiple records.

Code

acs_crosswalked %>% 
  group_by(place, statefip) %>% 
  count()

# A tibble: 535 x 3
# Groups:   place, statefip [535]
   place statefip     n
   <chr> <chr>    <int>
 1 00562 06        3260
 2 00884 06        2713
 3 01000 36        1569
 4 01000 39        8689
 5 01000 48        6991
 6 01000 51        3840
 7 01924 48        4911
 8 02000 06       29685
 9 02000 35        8780
10 02000 42        1393
# i 525 more rows
…
Code

acs_crosswalked <- acs_crosswalked %>% 
  filter(afact > 0)

Adjust the person weight to account for PUMA-to-place mapping (those where the PUMA is not entirely inside the place).

Code

select(acs_crosswalked, perwt, repwtp1, repwtp80, afact)

# A tibble: 3,619,092 x 4
   perwt repwtp1 repwtp80  afact
   <dbl>   <dbl>    <dbl>  <dbl>
 1    49      50       80 0.940 
 2    46      44       83 0.940 
 3    14      26       13 0.0828
 4    14      11       16 0.0425
 5    14      11       16 0.0819
 6    28      28       32 0.0393
 7    33      33       38 0.0393
 8    25      36       26 0.0079
 9    25      36       26 0.118 
10    23      30       24 0.0079
# i 3,619,082 more rows

Code

acs_crosswalked <- acs_crosswalked %>%
  mutate(perwt = perwt * afact) %>% 
  mutate(across(matches("repwtp[0-9]+"), ~.x * afact))

select(acs_crosswalked, perwt, repwtp1, repwtp80, afact) 

# A tibble: 3,619,092 x 4
    perwt repwtp1 repwtp80  afact
    <dbl>   <dbl>    <dbl>  <dbl>
 1 46.1    47.0     75.2   0.940 
 2 43.2    41.4     78.0   0.940 
 3  1.16    2.15     1.08  0.0828
 4  0.595   0.468    0.68  0.0425
 5  1.15    0.901    1.31  0.0819
 6  1.10    1.10     1.26  0.0393
 7  1.30    1.30     1.49  0.0393
 8  0.198   0.284    0.205 0.0079
 9  2.94    4.23     3.06  0.118 
10  0.182   0.237    0.190 0.0079
# i 3,619,082 more rows
…
