Employment Opportunities Predictor, County-level, Subgroups
…
Code

acs_crosswalked <- acs_crosswalked %>% 
  filter(afact > 0)

Adjust the person weight to account for PUMA-to-county mapping (those where the PUMA is not entirely inside the county).

Select an example of the repwtp variables before and after this step. The weighting should show in slightly adjusted repwtp variables after this process.

Code

select(acs_crosswalked, perwt, repwtp1, repwtp80, afact)

# A tibble: 11,850,808 x 4
   perwt repwtp1 repwtp80  afact
   <dbl>   <dbl>    <dbl>  <dbl>
 1    26      24       43 0.350 
 2    26      24       43 0.551 
 3    26      24       43 0.0992
 4    33      35       55 0.350 
 5    33      35       55 0.551 
 6    33      35       55 0.0992
 7    33      36       56 0.350 
 8    33      36       56 0.551 
 9    33      36       56 0.0992
10    15       4        5 0.261 
# i 11,850,798 more rows

Code

acs_crosswalked <- acs_crosswalked %>%
  mutate(perwt = perwt * afact,
         across(matches("repwtp[0-9]+"), ~.x * afact))

select(acs_crosswalked, perwt, repwtp1, repwtp80, afact) 

# A tibble: 11,850,808 x 4
   perwt repwtp1 repwtp80  afact
   <dbl>   <dbl>    <dbl>  <dbl>
 1  9.09    8.39    15.0  0.350 
 2 14.3    13.2     23.7  0.551 
 3  2.58    2.38     4.27 0.0992
 4 11.5    12.2     19.2  0.350 
 5 18.2    19.3     30.3  0.551 
 6  3.27    3.47     5.46 0.0992
 7 11.5    12.6     19.6  0.350 
 8 18.2    19.8     30.9  0.551 
 9  3.27    3.57     5.56 0.0992
10  3.92    1.04     1.31 0.261 
# i 11,850,798 more rows
…
