Employment Opportunities Predictor, County-level, Subgroups
…
Run an anti_join to see what data does not combine. We keep all counties so there should be no observations resulting from the anti-join.

Code

anti_join(acs_clean, 
          puma_county_crosswalk, 
          by = c("crosswalk_period", "statefip","puma")
)

# A tibble: 1,097,863 x 116
    year multyear.x sample   cbserial  hhwt adjust statefip puma  gq    hhincome
   <int>      <dbl> <fct>       <dbl> <dbl>  <dbl> <chr>    <chr> <fct>    <dbl>
 1  2014       2010 2010-20~  2.01e12    15   1.01 01       01300 Hous~    79357
 2  2014       2010 2010-20~  2.01e12    15   1.01 01       01300 Hous~    79357
 3  2014       2010 2010-20~  2.01e12    20   1.01 01       00300 Hous~    55876
 4  2014       2010 2010-20~  2.01e12    16   1.01 01       00903 Hous~   101098
 5  2014       2010 2010-20~  2.01e12    16   1.01 01       00903 Hous~   101098
 6  2014       2010 2010-20~  2.01e12    74   1.01 01       00300 Hous~   108708
 7  2014       2010 2010-20~  2.01e12    18   1.01 01       01300 Hous~    61203
 8  2014       2010 2010-20~  2.01e12    18   1.01 01       01300 Hous~    61203
 9  2014       2010 2010-20~  2.01e12    39   1.01 01       00903 Hous~    80444
10  2014       2010 2010-20~  2.01e12    39   1.01 01       00903 Hous~    80444
# i 1,097,853 more rows
# i 106 more variables: vacancy <int>, pernum <dbl>, cbpernum <int>,
#   perwt <dbl>, sex <fct>, age <int>, race <fct>, hispan <fct>,
#   educ <int+lbl>, educd <int+lbl>, gradeatt <int+lbl>, gradeattd <int+lbl>,
#   empstat <int>, cognitive_difficulty <fct>, ambulatory_difficulty <fct>,
#   independent_living_difficulty <fct>, self_care_difficulty <fct>,
#   vision_hearing_difficulty <fct>, unique_person_id <chr>, ...
…
Code

acs_crosswalked <- acs_crosswalked %>% 
  filter(afact > 0)

Adjust the person weight to account for PUMA-to-county mapping (those where the PUMA is not entirely inside the county).

Select an example of the repwtp variables before and after this step. The weighting should show in slightly adjusted repwtp variables after this process.

Code

select(acs_crosswalked, perwt, repwtp1, repwtp80, afact)

# A tibble: 10,485,287 x 4
   perwt repwtp1 repwtp80  afact
   <dbl>   <dbl>    <dbl>  <dbl>
 1    24      21       25 0.0965
 2    24      21       25 0.180 
 3    24      21       25 0.0921
 4    24      21       25 0.267 
 5    24      21       25 0.161 
 6    24      21       25 0.122 
 7    24      21       25 0.0813
 8    32      28       32 0.0965
 9    32      28       32 0.180 
10    32      28       32 0.0921
# i 10,485,277 more rows

Code

acs_crosswalked <- acs_crosswalked %>%
  mutate(perwt = perwt * afact,
         across(matches("repwtp[0-9]+"), ~.x * afact))

select(acs_crosswalked, perwt, repwtp1, repwtp80, afact) 

# A tibble: 10,485,287 x 4
   perwt repwtp1 repwtp80  afact
   <dbl>   <dbl>    <dbl>  <dbl>
 1  2.32    2.03     2.41 0.0965
 2  4.32    3.78     4.50 0.180 
 3  2.21    1.93     2.30 0.0921
 4  6.41    5.60     6.67 0.267 
 5  3.86    3.37     4.02 0.161 
 6  2.94    2.57     3.06 0.122 
 7  1.95    1.71     2.03 0.0813
 8  3.09    2.70     3.09 0.0965
 9  5.76    5.04     5.76 0.180 
10  2.95    2.58     2.95 0.0921
# i 10,485,277 more rows
…
