Employment Opportunities Predictor, Place-level
…
rm(acs_clean)

Check that each place has joined to many ACS records. We select the largest 486 places in our crosswalk, all 486 unique places should be connected to multiple records.

Code

acs_crosswalked %>% 
  group_by(place, statefip) %>% 
  count()

# A tibble: 536 x 3
# Groups:   place, statefip [536]
   place statefip     n
   <chr> <chr>    <int>
 1 00562 06        2039
 2 00884 06        1648
 3 01000 36         884
 4 01000 39        5228
 5 01000 48        4322
 6 01000 51        2320
 7 01924 48        3614
 8 02000 06       17815
 9 02000 35        5325
10 02000 42         734
# i 526 more rows
…
Code

acs_crosswalked <- acs_crosswalked %>% 
  filter(afact > 0)

Adjust the person weight to account for PUMA-to-place mapping (those where the PUMA is not entirely inside the place).

Code

select(acs_crosswalked, perwt, repwtp1, repwtp80, afact)

# A tibble: 2,183,138 x 4
   perwt repwtp1 repwtp80  afact
   <dbl>   <dbl>    <dbl>  <dbl>
 1    63      59       16 0.940 
 2    65      55       21 0.940 
 3   337     379      320 0.904 
 4   216     263      398 0.997 
 5    49      52       15 0.971 
 6    29      39       13 0.971 
 7    24      31       11 0.971 
 8   330     469      106 0.112 
 9    63      21       18 0.997 
10    73      75      139 0.0079
# i 2,183,128 more rows

Code

acs_crosswalked <- acs_crosswalked %>%
  mutate(perwt = perwt * afact) %>% 
  mutate(across(matches("repwtp[0-9]+"), ~.x * afact))

select(acs_crosswalked, perwt, repwtp1, repwtp80, afact) 

# A tibble: 2,183,138 x 4
     perwt repwtp1 repwtp80  afact
     <dbl>   <dbl>    <dbl>  <dbl>
 1  59.2    55.5      15.0  0.940 
 2  61.1    51.7      19.7  0.940 
 3 305.    343.      289.   0.904 
 4 215.    262.      397.   0.997 
 5  47.6    50.5      14.6  0.971 
 6  28.2    37.9      12.6  0.971 
 7  23.3    30.1      10.7  0.971 
 8  37.1    52.8      11.9  0.112 
 9  62.8    20.9      17.9  0.997 
10   0.577   0.592     1.10 0.0079
# i 2,183,128 more rows
…
