Employment Opportunities Predictor, County-level
…
Code

acs_crosswalked <- acs_crosswalked %>% 
  filter(afact > 0)

Adjust the person weight to account for PUMA-to-county mapping (those where the PUMA is not entirely inside the county).

Code

select(acs_crosswalked, perwt, repwtp1, repwtp80, afact)

# A tibble: 6,934,387 × 4
   perwt repwtp1 repwtp80  afact
   <dbl>   <dbl>    <dbl>  <dbl>
 1    43      42       14 0.261 
 2    43      42       14 0.333 
 3    43      42       14 0.0881
 4    43      42       14 0.318 
 5    63      59       16 1     
 6    65      55       21 1     
 7    88     107      143 0.407 
 8    88     107      143 0.593 
 9   157     178      259 0.407 
10   157     178      259 0.593 
# ℹ 6,934,377 more rows

Code

acs_crosswalked <- acs_crosswalked %>%
  mutate(perwt = perwt * afact) %>% 
  mutate(across(matches("repwtp[0-9]+"), ~.x * afact))

select(acs_crosswalked, perwt, repwtp1, repwtp80, afact) 

# A tibble: 6,934,387 × 4
   perwt repwtp1 repwtp80  afact
   <dbl>   <dbl>    <dbl>  <dbl>
 1 11.2    11.0      3.66 0.261 
 2 14.3    14.0      4.66 0.333 
 3  3.79    3.70     1.23 0.0881
 4 13.7    13.3      4.45 0.318 
 5 63      59       16    1     
 6 65      55       21    1     
 7 35.8    43.5     58.2  0.407 
 8 52.2    63.5     84.8  0.593 
 9 63.9    72.4    105.   0.407 
10 93.1   106.     154.   0.593 
# ℹ 6,934,377 more rows
…
