Employment Opportunities Predictor, County-level
…
Code

acs_crosswalked <- acs_crosswalked %>% 
  filter(afact > 0)

Adjust the person weight to account for PUMA-to-county mapping (those where the PUMA is not entirely inside the county).

Select an example of the repwtp variables before and after this step. The weighting should show in slightly adjusted repwtp variables after this process.

Code

select(acs_crosswalked, perwt, repwtp1, repwtp80, afact)

# A tibble: 2,355,189 x 4
   perwt repwtp1 repwtp80  afact
   <dbl>   <dbl>    <dbl>  <dbl>
 1    69      69       66 0.089 
 2    69      69       66 0.299 
 3    69      69       66 0.0893
 4    69      69       66 0.168 
 5    69      69       66 0.355 
 6    54      39       65 0.089 
 7    54      39       65 0.299 
 8    54      39       65 0.0893
 9    54      39       65 0.168 
10    54      39       65 0.355 
# i 2,355,179 more rows

Code

acs_crosswalked <- acs_crosswalked %>%
  mutate(perwt = perwt * afact,
         across(matches("repwtp[0-9]+"), ~.x * afact))

select(acs_crosswalked, perwt, repwtp1, repwtp80, afact) 

# A tibble: 2,355,189 x 4
   perwt repwtp1 repwtp80  afact
   <dbl>   <dbl>    <dbl>  <dbl>
 1  6.14    6.14     5.87 0.089 
 2 20.6    20.6     19.7  0.299 
 3  6.16    6.16     5.89 0.0893
 4 11.6    11.6     11.1  0.168 
 5 24.5    24.5     23.4  0.355 
 6  4.81    3.47     5.78 0.089 
 7 16.1    11.7     19.4  0.299 
 8  4.82    3.48     5.80 0.0893
 9  9.07    6.55    10.9  0.168 
10 19.2    13.8     23.1  0.355 
# i 2,355,179 more rows
…
