Employment Opportunities Predictor, County-level, Subgroups
…
Code

acs_crosswalked <- acs_crosswalked %>% 
  filter(afact > 0)

Adjust the person weight to account for PUMA-to-county mapping (those where the PUMA is not entirely inside the county).

Code

select(acs_crosswalked, perwt, repwtp1, repwtp80, afact)

# A tibble: 22,760,760 x 4
   perwt repwtp1 repwtp80  afact
   <dbl>   <dbl>    <dbl>  <dbl>
 1     7       3        9 0.188 
 2     7       3        9 0.0749
 3     7       3        9 0.147 
 4     7       3        9 0.226 
 5     7       3        9 0.364 
 6    26       6       52 0.188 
 7    26       6       52 0.0749
 8    26       6       52 0.147 
 9    26       6       52 0.226 
10    26       6       52 0.364 
# i 22,760,750 more rows

Code

acs_crosswalked <- acs_crosswalked %>%
  mutate(perwt = perwt * afact) %>% 
  mutate(across(matches("repwtp[0-9]+"), ~.x * afact))

select(acs_crosswalked, perwt, repwtp1, repwtp80, afact) 

# A tibble: 22,760,760 x 4
   perwt repwtp1 repwtp80  afact
   <dbl>   <dbl>    <dbl>  <dbl>
 1 1.32    0.566    1.70  0.188 
 2 0.524   0.225    0.674 0.0749
 3 1.03    0.442    1.33  0.147 
 4 1.58    0.677    2.03  0.226 
 5 2.54    1.09     3.27  0.364 
 6 4.90    1.13     9.80  0.188 
 7 1.95    0.449    3.89  0.0749
 8 3.83    0.884    7.66  0.147 
 9 5.87    1.35    11.7   0.226 
10 9.45    2.18    18.9   0.364 
# i 22,760,750 more rows
…
