Employment Opportunities Predictor, place-level
…
Join the cleaned ACS data onto the crosswalk.

Code

acs_clean <- left_join(acs_clean, puma_place_crosswalk, by=c("crosswalk_period", "statefip","puma"), relationship = "many-to-many")

Run anti_join to see how many cases on the left did not have a match on the right.

Code

anti_join(acs_clean, puma_place_crosswalk, by=c("crosswalk_period", "statefip","puma"))

# A tibble: 20,896,420 x 28
    year multyear sample    hhwt adjust statefip puma  gq       hhincome vacancy
   <int>    <dbl> <fct>    <dbl>  <dbl> <chr>    <chr> <fct>       <dbl>   <int>
 1  2018       NA 2018 ACS    36   1.01 01       01800 Househo~    59100       0
 2  2018       NA 2018 ACS    36   1.01 01       01800 Househo~    59100       0
 3  2018       NA 2018 ACS    36   1.01 01       01800 Househo~    59100       0
 4  2018       NA 2018 ACS    36   1.01 01       01800 Househo~    59100       0
 5  2018       NA 2018 ACS    86   1.01 01       00800 Househo~    70000       0
 6  2018       NA 2018 ACS    86   1.01 01       00800 Househo~    70000       0
 7  2018       NA 2018 ACS    86   1.01 01       00800 Househo~    70000       0
 8  2018       NA 2018 ACS    86   1.01 01       00800 Househo~    70000       0
 9  2018       NA 2018 ACS    41   1.01 01       01700 Househo~    25000       0
10  2018       NA 2018 ACS    41   1.01 01       01700 Househo~    25000       0
# i 20,896,410 more rows
# i 18 more variables: pernum <dbl>, perwt <dbl>, age <int>, race <fct>,
#   hispan <fct>, empstat <int>, subgroup <chr>, crosswalk_period <chr>,
#   place <chr>, state_name <chr>, place_name <chr>, population <dbl>,
#   afact <dbl>, afact2 <dbl>, products <dbl>, sum_products <dbl>,
#   place_pop <dbl>, geographic_allocation_quality <dbl>
…
