poverty-exposure.utf8
…
5. Divide the number from 2. by the total number of people in poverty in each Census tract.

counties_joined <- counties_joined %>%
  mutate(poverty_count_county = people_county * poverty_rate_county * 0.01) 
  
counties_joined <- counties_joined %>%
  mutate(poverty_exposure = high_poverty / poverty_count_county) 

Lets look at the highest values.

counties_joined %>%
  arrange(desc(poverty_exposure)) %>%
  select(state, county, poverty_exposure)

## # A tibble: 3,141 x 3
##    state county poverty_exposure
##    <chr> <chr>             <dbl>
##  1 17    087               1.49 
##  2 02    158               1    
##  3 13    061               1    
##  4 28    055               1    
##  5 46    095               1    
##  6 46    137               1    
##  7 46    121               1.00 
##  8 46    031               0.999
##  9 28    063               0.996
## 10 19    169               0.964
## #  with 3,131 more rows
…
