Exposure to Trauma
…
All 9 of Connecticut’s planning regions are missing for 2022-2023.

Oglala Lakota County, SD is missing for 2015-2023

missing_CDC <- anti_join(
  x = urban_counties, 
  y = death_rates_wide, 
  by = c("year", "GEOID")
  )

missing_CDC |>
  group_by(state_name, county_name) |>
  count(year)

# A tibble: 44 × 4
# Groups:   state_name, county_name [13]
   state_name county_name               year     n
   <chr>      <chr>                    <dbl> <int>
 1 Alaska     Chugach Census Area       2020     1
 2 Alaska     Chugach Census Area       2021     1
 3 Alaska     Chugach Census Area       2022     1
 4 Alaska     Chugach Census Area       2023     1
 5 Alaska     Copper River Census Area  2020     1
 6 Alaska     Copper River Census Area  2021     1
 7 Alaska     Copper River Census Area  2022     1
 8 Alaska     Copper River Census Area  2023     1
 9 Alaska     Kusilvak Census Area      2015     1
10 Alaska     Kusilvak Census Area      2016     1
# ℹ 34 more rows
…
Valdez-Cordova Census Area, AK is missing for 2020-2023

All 8 counties from Connecticut are missing for 2022-2023

missing_urban <- anti_join(
  x = death_rates_wide, 
  y = urban_counties, 
  by = c("year", "GEOID")
  )

missing_urban |>
  group_by(county_name) |>
  count(year)

# A tibble: 55 × 3
# Groups:   county_name [14]
   county_name             year     n
   <chr>                  <dbl> <int>
 1 Bedford city, VA        2014     1
 2 Bedford city, VA        2015     1
 3 Bedford city, VA        2016     1
 4 Bedford city, VA        2017     1
 5 Bedford city, VA        2018     1
 6 Bedford city, VA        2019     1
 7 Bedford city, VA        2020     1
 8 Clifton Forge city, VA  2014     1
 9 Clifton Forge city, VA  2015     1
10 Clifton Forge city, VA  2016     1
# ℹ 45 more rows
…
Prior to 2013, Prince of Wales-Outer Ketchikan Census Area, AK (02201), Skagway-Hoonah-Angoon Census Area, AK (02232) and Wrangell-Petersburg Census Area, AK (02280) were all split and their parts were used to create new Census Areas (source). Beginning in 2014, deaths and population data for these areas are no longer available (source). Data are only available for these areas for years 1999-2013; deaths and population estimates for years 2014-2020 are missing (zero). We drop these three county equivalents from the CDC deaths data.

death_rates_wide |>
  filter(GEOID %in% c("02201", "02232", "02280"))

# A tibble: 21 × 28
    year county_name          GEOID rate_injury_death_all rate_injury_death_hisp
   <dbl> <chr>                <chr>                 <dbl>                  <dbl>
 1  2014 Prince of Wales-Out… 02201                    NA                     NA
 2  2014 Skagway-Hoonah-Ango… 02232                    NA                     NA
 3  2014 Wrangell-Petersburg… 02280                    NA                     NA
 4  2015 Prince of Wales-Out… 02201                    NA                     NA
 5  2015 Skagway-Hoonah-Ango… 02232                    NA                     NA
 6  2015 Wrangell-Petersburg… 02280                    NA                     NA
 7  2016 Prince of Wales-Out… 02201                    NA                     NA
 8  2016 Skagway-Hoonah-Ango… 02232                    NA                     NA
 9  2016 Wrangell-Petersburg… 02280                    NA                     NA
10  2017 Prince of Wales-Out… 02201                    NA                     NA
# ℹ 11 more rows
# ℹ 23 more variables: rate_injury_death_nhblack <dbl>,
#   rate_injury_death_nhother <dbl>, rate_injury_death_nhwhite <dbl>,
#   rate_injury_death_lb_all <dbl>, rate_injury_death_lb_hisp <dbl>,
#   rate_injury_death_lb_nhblack <dbl>, rate_injury_death_lb_nhother <dbl>,
#   rate_injury_death_lb_nhwhite <dbl>, rate_injury_death_ub_all <dbl>,
#   rate_injury_death_ub_hisp <dbl>, rate_injury_death_ub_nhblack <dbl>, …
…
5.2 Distribution of injury death rates and missingness

The county-level rate of injury deaths per 100,000 people has increased from 2014-2023, but because these are crude rates instead of age-adjusted, it could be that the underlying age distribution of the population has changed.

joined_data |>
  group_by(subgroup, year) |>
  summarise(
    quantiles = list(quantile(rate_injury_death, 
                              probs = c(0, 0.2, 0.4, 0.6, 0.8, 0.9, 0.99, 1), 
                              na.rm = TRUE))
  ) |>
  unnest_wider(quantiles)

# A tibble: 22 × 10
# Groups:   subgroup [5]
   subgroup  year  `0%` `20%` `40%` `60%` `80%` `90%` `99%` `100%`
   <chr>    <dbl> <dbl> <dbl> <dbl> <dbl> <dbl> <dbl> <dbl>  <dbl>
 1 all       2014  27.4  59.6  70    79.8  94.1  107.  157.   248.
 2 all       2015  25.9  61.1  71.9  82.1  95.8  109.  157.   268.
 3 all       2016  23.1  63.3  73.7  84.2  98.1  111.  158.   275.
 4 all       2017  27.1  65.4  76.3  86.8 101.   115   160.   285 
 5 all       2018  26.8  67.1  78.7  89.6 103.   117.  166.   253.
 6 all       2019  27.1  68.5  81.3  92.3 106.   119.  171.   271.
 7 all       2020  29    70.5  83.9  95.5 110.   123   176.   280.
 8 all       2021  28.9  73.9  88.7 101.  117.   133.  193.   292 
 9 all       2022  27.7  75.9  90.6 103.  121.   136.  201.   280.
10 all       2023  29.8  77.7  93.3 107.  124.   141.  210.   355.
# ℹ 12 more rows

The rate of missing injury death rates is about the same for each year. It is higher in 2021 than in other years, but this makes sense because our data for 2021 is a 4-year pool while other years are 5-year pools. All race subgroups except Non-Hispanic white have high rates of missing.

joined_data |>
  group_by(subgroup, year) |>
  summarize(
    missing = sum(is.na(rate_injury_death)),
    missing_pct = sum(is.na(rate_injury_death)) / n() * 100
  )

# A tibble: 22 × 4
# Groups:   subgroup [5]
   subgroup  year missing missing_pct
   <chr>    <dbl>   <int>       <dbl>
 1 all       2014     281        8.94
 2 all       2015     268        8.53
 3 all       2016     268        8.53
 4 all       2017     271        8.63
 5 all       2018     266        8.47
 6 all       2019     267        8.50
 7 all       2020     264        8.40
 8 all       2021     323       10.3 
 9 all       2022     268        8.52
10 all       2023     258        8.21
# ℹ 12 more rows
…
