poverty-exposure.utf8
…
5. Divide the number from 2. by the total number of people in poverty in each Census tract.

counties_joined <- counties_joined %>%
  mutate(poverty_county = people_county * poverty_rate_county * 0.01) 
  
counties_joined <- counties_joined %>%
  mutate(poverty_exposure = high_poverty / poverty_county) 

counties_joined %>%
  arrange(desc(poverty_exposure))

## # A tibble: 3,142 x 10
##    state county people_county poverty_rate_co poverty_rate_co people
##    <chr> <chr>          <dbl>            <dbl>            <dbl>  <dbl>
##  1 17    087            12602             11.8              2.3  12602
##  2 02    158             8198             40.5              1.8   8198
##  3 13    061             3001             41.1              8.6   3001
##  4 28    055             1328             41.7             10.7   1328
##  5 46    095             2055             48.3              7.1   2055
##  6 46    137             2814             41                3.9   2814
##  7 46    121            10146             55.1              4.7  10146
##  8 46    031             4168             44.3              2.9   4168
##  9 28    063             7346             49.7             10.1   7346
## 10 19    169            96922             21.5              1.3  96922
## #  with 3,132 more rows, and 4 more variables: high_poverty <dbl>,
## #   tracts <int>, poverty_county <dbl>, poverty_exposure <dbl>
…
