Air Quality Index Program
…
           > rows only in y  (      0)

           > matched rows    (217,578)

           >                 =========

           > rows total         1,590

mutate: new variable 'state' (character) with 41 unique values and 0% NA

group_by: 2 grouping variables (state, year)

count: now 123 rows and 3 columns, 2 group variables remaining (state, year)

# A tibble: 123 x 3
# Groups:   state, year [123]
   state year      n
   <chr> <chr> <int>
 1 12    2014     63
 2 12    2018     63
 3 12    2019     63
 4 26    2014     57
 5 26    2018     57
 6 26    2019     57
 7 36    2014     48
 8 36    2018     48
 9 36    2019     48
10 06    2014     34
# i 113 more rows
…
           > rows only in y  (     63)

           > matched rows    (370,762)

           >                 =========

           > rows total           137

mutate: new variable 'state' (character) with 7 unique values and 0% NA

group_by: 2 grouping variables (state, year)

count: now 21 rows and 3 columns, 2 group variables remaining (state, year)

# A tibble: 21 x 3
# Groups:   state, year [21]
   state year      n
   <chr> <chr> <int>
 1 36    2014     23
 2 36    2018     23
 3 36    2019     23
 4 04    2014     15
 5 04    2018     15
 6 04    2019     15
 7 06    2018      3
 8 06    2019      3
 9 06    2014      2
10 28    2014      2
# i 11 more rows
…
