Reported Violent Crime and Property Crime - County
…
Clean geography information on the batch header file.

# See what states/territories are included
batch_header_file |>
  group_by(state_name, state_abbreviation) |>
  count()

# A tibble: 54 × 3
# Groups:   state_name, state_abbreviation [54]
   state_name           state_abbreviation     n
   <chr>                <chr>              <int>
 1 Alabama              AL                  1453
 2 Alaska               AK                   141
 3 Arizona              AZ                   403
 4 Arkansas             AR                  1026
 5 California           CA                  2669
 6 Colorado             CO                   892
 7 Connecticut          CT                   372
 8 Delaware             DE                   224
 9 District of Columbia DC                     9
10 Florida              FL                  2477
# ℹ 44 more rows
…
