Juvenile Arrests - County
…
3.3 Recode race, ethnicity, and sex for Group B

The values for race_of_arrestee and ethnicity_of_arrestee are different between the Group A and Group B files. The races and ethnicities for Group B observations are coded using single letters and are therefore not very clear. I can’t find a codebook anywhere for these variables, so I make my best guess at recoding them to match the codes used for Group A. Note that this step was not included in the 2021 update.

Note that if there is a codebook available, we should confirm this is correct. It shouldn’t matter for the violent crime or property crime arrests because Group B arrests are excluded from those categories, but it would matter for total arrests.

Recode race and ethnicity for Group B observations.

# Group B codes for race and ethnicity do not match those used for Group A
arrests %>%
  group_by(group, race_of_arrestee, ethnicity_of_arrestee) %>%
  count()

# A tibble: 48 × 4
# Groups:   group, race_of_arrestee, ethnicity_of_arrestee [48]
   group race_of_arrestee               ethnicity_of_arrestee       n
   <chr> <chr>                          <chr>                   <int>
 1 A     american indian/alaskan native hispanic origin           433
 2 A     american indian/alaskan native not of hispanic origin   6775
 3 A     american indian/alaskan native unknown                  1066
 4 A     american indian/alaskan native <NA>                      964
 5 A     asian                          hispanic origin           173
 6 A     asian                          not of hispanic origin   3295
 7 A     asian                          unknown                   412
 8 A     asian                          <NA>                      443
 9 A     black                          hispanic origin          2825
10 A     black                          not of hispanic origin 142347
# ℹ 38 more rows
…
