Juvenile Arrests - County
…
NA values are introduced above when converting age_of_arrestee to a numeric variable because there are two character values: over 98 years old and unknown. This is fine. They won’t be included in the juvenile arrest rates, but the observations will still be used later to calculate the percentage of agencies that report any arrest data which is used in the construction of the quality indicator.

arrests_a |> group_by(age_of_arrestee) |> count()

# A tibble: 100 × 2
# Groups:   age_of_arrestee [100]
   age_of_arrestee     n
   <chr>           <int>
 1 01                 31
 2 02                  6
 3 03                 10
 4 04                 13
 5 05                 42
 6 06                 91
 7 07                254
 8 08                631
 9 09               1495
10 10               5191
# ℹ 90 more rows
…
NA values are introduced above when converting age_of_arrestee to a numeric variable because there are two character values: over 98 years old and unknown. This is fine. They won’t be included in the juvenile arrest rates, but the observations will still be used later to calculate the percentage of agencies that report any arrest data which is used in the construction of the quality indicator.

arrests_b |> group_by(age_of_arrestee) |> count()

# A tibble: 100 × 2
# Groups:   age_of_arrestee [100]
   age_of_arrestee     n
   <chr>           <int>
 1 01                 33
 2 02                 17
 3 03                 15
 4 04                 21
 5 05                 36
 6 06                110
 7 07                194
 8 08                329
 9 09                628
10 10               1563
# ℹ 90 more rows
…
Aggregate arrests by agency and finish race construction

Note that this metric includes the following subgroups by race, sex, and age subgroups, so those subgroups are also aggregated in this section:

Race: white, Black, Hispanic, Asian/other

Sex: male, female

Age: ages 10-14, ages 15-17

arrests_juv |>
  group_by(race_of_arrestee, ethnicity_of_arrestee) |>
  count()

# A tibble: 24 × 3
# Groups:   race_of_arrestee, ethnicity_of_arrestee [24]
   race_of_arrestee               ethnicity_of_arrestee       n
   <chr>                          <chr>                   <int>
 1 american indian/alaskan native hispanic or latino       1195
 2 american indian/alaskan native not hispanic or latino  19177
 3 american indian/alaskan native unknown                  3602
 4 american indian/alaskan native <NA>                     2833
 5 asian                          hispanic or latino        462
 6 asian                          not hispanic or latino   8614
 7 asian                          unknown                  1087
 8 asian                          <NA>                     1395
 9 black                          hispanic or latino       6943
10 black                          not hispanic or latino 328938
# ℹ 14 more rows
…
Clean geography information on the batch header file.

# See what states/territories are included
batch_header_file |>
  group_by(state_name, state_abbreviation) |>
  count()

# A tibble: 54 × 3
# Groups:   state_name, state_abbreviation [54]
   state_name           state_abbreviation     n
   <chr>                <chr>              <int>
 1 Alabama              AL                  1453
 2 Alaska               AK                   141
 3 Arizona              AZ                   403
 4 Arkansas             AR                  1026
 5 California           CA                  2669
 6 Colorado             CO                   892
 7 Connecticut          CT                   372
 8 Delaware             DE                   224
 9 District of Columbia DC                     9
10 Florida              FL                  2477
# ℹ 44 more rows
…
