Opportunity for Income Predictor, place-level, subgroups
…
rm(acs_clean)

Check that each place has joined to many ACS records. We select the largest 486 places in our crosswalk, all 486 unique places should be connected to multiple records.

Code

acs_crosswalked %>% 
  group_by(place, statefip) %>% 
  count()

# A tibble: 536 x 3
# Groups:   place, statefip [536]
   place statefip     n
   <chr> <chr>    <int>
 1 00562 06        3420
 2 00884 06        2392
 3 01000 36        1742
 4 01000 39       10409
 5 01000 48        9160
 6 01000 51        3675
 7 01924 48        5195
 8 02000 06       23741
 9 02000 35       11052
10 02000 42        1391
# i 526 more rows
…
Code

acs_crosswalked <- acs_crosswalked %>% 
  filter(afact > 0)

Adjust the household weight to account for PUMA-to-place mapping (those where the PUMA is not entirely inside the place).

Code

select(acs_crosswalked, hhwt, repwt1, repwt80, afact)

# A tibble: 3,501,725 x 4
    hhwt repwt1 repwt80  afact
   <dbl>  <dbl>   <dbl>  <dbl>
 1    78     81     128 0.514 
 2    13     21      24 0.968 
 3    23     23      24 0.0139
 4    23     23      24 0.194 
 5     4      4       2 0.0519
 6     4      4       2 0.113 
 7    82     26      75 0.0326
 8     3      0       0 0.0326
 9    10      3       9 0.0139
10    10      3       9 0.194 
# i 3,501,715 more rows

Code

acs_crosswalked <- acs_crosswalked %>%
  mutate(hhwt = hhwt * afact,
         across(matches("repwt[0-9]+"), ~.x * afact))

select(acs_crosswalked, hhwt, repwt1, repwt80, afact) 

# A tibble: 3,501,725 x 4
      hhwt  repwt1 repwt80  afact
     <dbl>   <dbl>   <dbl>  <dbl>
 1 40.1    41.6     65.8   0.514 
 2 12.6    20.3     23.2   0.968 
 3  0.320   0.320    0.334 0.0139
 4  4.46    4.46     4.65  0.194 
 5  0.208   0.208    0.104 0.0519
 6  0.451   0.451    0.226 0.113 
 7  2.67    0.848    2.44  0.0326
 8  0.0978  0        0     0.0326
 9  0.139   0.0417   0.125 0.0139
10  1.94    0.582    1.75  0.194 
# i 3,501,715 more rows
…
