Transit Trips and Transportation Costs – County
…
counties <- read_csv(here("geographic-crosswalks", 
                          "data", 
                          "county-populations.csv"))

Code

counties <- counties |>
  filter(year %in% c(2015, 2019))

Code

full_join(transportation_county, counties, by = c("year", "state", "county"))

# A tibble: 6,284 × 11
    year state county blkgrps population.x households transit_trips_80ami
   <dbl> <chr> <chr>    <dbl>        <dbl>      <dbl>               <dbl>
 1  2015 01    001         32        55221      20396                   4
 2  2015 01    003         93       195121      74104                  13
 3  2015 01    005         23        26932       9222                  17
 4  2015 01    007         15        22604       7027                   6
 5  2015 01    009         35        57710      20816                   5
 6  2015 01    011          7        10678       3683                  14
 7  2015 01    013         19        20354       8056                  13
 8  2015 01    015         91       116648      45154                  15
 9  2015 01    017         33        34079      13787                   6
10  2015 01    019         19        26008      11278                   5
# ℹ 6,274 more rows
# ℹ 4 more variables: t_80ami <dbl>, state_name <chr>, county_name <chr>,
#   population.y <dbl>
…
summary(transportation_county$index_transportation_cost)

   Min. 1st Qu.  Median    Mean 3rd Qu.    Max.    NA's 
   5.00   30.00   34.00   34.59   39.00   67.00       1 

Examine extreme values

Code

transportation_county |>
  group_by(year) |>
  slice_max(n = 10, order_by = index_transportation_cost)

# A tibble: 23 × 8
# Groups:   year [2]
    year state county blkgrps population households count_transit_trips
   <dbl> <chr> <chr>    <dbl>      <dbl>      <dbl>               <dbl>
 1  2015 01    119         14      13341       4815                  25
 2  2015 21    147         14      18001       6277                  25
 3  2015 01    063         10       8697       3201                  24
 4  2015 21    189          5       4616       1773                  23
 5  2015 13    061          3       3104       1183                  35
 6  2015 13    259          5       5868       1731                  32
 7  2015 22    107          6       4893       1915                  29
 8  2015 28    051         19      18772       6420                  31
 9  2015 28    063          7       7586       2545                  36
10  2015 35    033          5       4660       1654                  40
# ℹ 13 more rows
# ℹ 1 more variable: index_transportation_cost <dbl>
…
