Transit Trips and Transportation Costs – City
…
summary(transportation_city$share_transit_commuter)

   Min. 1st Qu.  Median    Mean 3rd Qu.    Max.    NA's 
0.00000 0.01802 0.02812 0.04328 0.04731 0.56504       8 

Examine extreme values

Code

transportation_city |>
  group_by(year) |>
  slice_max(n = 10, order_by = share_transit_commuter)

# A tibble: 30 × 13
# Groups:   year [3]
    year state place state_name           place_name         population     n
   <dbl> <chr> <chr> <chr>                <chr>                   <dbl> <int>
 1  2015 36    51000 New York             New York city         8550405  2120
 2  2015 34    36000 New Jersey           Jersey City city       264290    66
 3  2015 06    67000 California           San Francisco city     864816   195
 4  2015 25    11000 Massachusetts        Cambridge city         110402    32
 5  2015 11    50000 District of Columbia Washington city        672228   179
 6  2015 17    14000 Illinois             Chicago city          2720546   797
 7  2015 25    07000 Massachusetts        Boston city            667137   171
 8  2015 25    62535 Massachusetts        Somerville city         80318    18
 9  2015 42    60000 Pennsylvania         Philadelphia city     1567442   376
10  2015 34    51000 New Jersey           Newark city            281944    85
# ℹ 20 more rows
# ℹ 6 more variables: share_transit_commuter <dbl>,
#   share_transportation_cost <dbl>, households_est <dbl>, households_se <dbl>,
#   match_pop <dbl>, match_quality <dbl>
…
Code

transportation_city |>
  group_by(year, state, place) |>
  mutate(change = share_transit_commuter - lag(share_transit_commuter)) |>
  ungroup() |>
  filter(year %in% c(2019, 2022)) |>
  slice_max(order_by = abs(change), n = 10)

# A tibble: 972 × 14
    year state place state_name place_name             population     n
   <dbl> <chr> <chr> <chr>      <chr>                       <dbl> <int>
 1  2019 01    03076 Alabama    Auburn city                 66259    16
 2  2019 01    07000 Alabama    Birmingham city            209403    98
 3  2019 01    35896 Alabama    Hoover city                 85768    29
 4  2019 01    37000 Alabama    Huntsville city            200574    65
 5  2019 01    50000 Alabama    Mobile city                188720    77
 6  2019 01    51000 Alabama    Montgomery city            198525    61
 7  2019 01    77256 Alabama    Tuscaloosa city            101129    38
 8  2019 02    03000 Alaska     Anchorage municipality     288000    55
 9  2019 04    04720 Arizona    Avondale city               87931    23
10  2019 04    07940 Arizona    Buckeye city                79620    14
# ℹ 962 more rows
# ℹ 7 more variables: share_transit_commuter <dbl>,
#   share_transportation_cost <dbl>, households_est <dbl>, households_se <dbl>,
#   match_pop <dbl>, match_quality <dbl>, change <dbl>
…
summary(transportation_city$share_transportation_cost)

   Min. 1st Qu.  Median    Mean 3rd Qu.    Max.    NA's 
0.09969 0.20966 0.24093 0.23861 0.26775 0.41604       8 

Examine extreme values

Code

transportation_city |>
  group_by(year) |>
  slice_max(n = 10, order_by = share_transportation_cost)

# A tibble: 30 × 13
# Groups:   year [3]
    year state place state_name place_name       population     n
   <dbl> <chr> <chr> <chr>      <chr>                 <dbl> <int>
 1  2015 48    48768 Texas      Mission city          83298    16
 2  2015 48    22660 Texas      Edinburg city         84497    13
 3  2015 48    57200 Texas      Pharr city            76538     9
 4  2015 48    45384 Texas      McAllen city         140269    28
 5  2015 48    10768 Texas      Brownsville city     183887    50
 6  2015 06    82954 California Visalia city         130104    23
 7  2015 48    41464 Texas      Laredo city          255473    58
 8  2015 06    46898 California Merced city           82436    20
 9  2015 06    14218 California Clovis city          104180    25
10  2015 12    54200 Florida    Palm Coast city       82893    16
# ℹ 20 more rows
# ℹ 6 more variables: share_transit_commuter <dbl>,
#   share_transportation_cost <dbl>, households_est <dbl>, households_se <dbl>,
#   match_pop <dbl>, match_quality <dbl>
…
Code

transportation_city |>
  group_by(year, state, place) |>
  mutate(change = share_transportation_cost - lag(share_transportation_cost)) |>
  ungroup() |>
  filter(year %in% c(2019, 2022)) |>
  slice_max(order_by = abs(change), n = 10)

# A tibble: 972 × 14
    year state place state_name place_name             population     n
   <dbl> <chr> <chr> <chr>      <chr>                       <dbl> <int>
 1  2019 01    03076 Alabama    Auburn city                 66259    16
 2  2019 01    07000 Alabama    Birmingham city            209403    98
 3  2019 01    35896 Alabama    Hoover city                 85768    29
 4  2019 01    37000 Alabama    Huntsville city            200574    65
 5  2019 01    50000 Alabama    Mobile city                188720    77
 6  2019 01    51000 Alabama    Montgomery city            198525    61
 7  2019 01    77256 Alabama    Tuscaloosa city            101129    38
 8  2019 02    03000 Alaska     Anchorage municipality     288000    55
 9  2019 04    04720 Arizona    Avondale city               87931    23
10  2019 04    07940 Arizona    Buckeye city                79620    14
# ℹ 962 more rows
# ℹ 7 more variables: share_transit_commuter <dbl>,
#   share_transportation_cost <dbl>, households_est <dbl>, households_se <dbl>,
#   match_pop <dbl>, match_quality <dbl>, change <dbl>
…
