Transit Trips and Transportation Costs – County – Subgroups
…
# A tibble: 0 × 10
# ℹ 10 variables: year <dbl>, GEOID <chr>, state <chr>, county <chr>,
#   tract <chr>, blkgrps <dbl>, population <dbl>, households <dbl>,
#   count_transit_trips <dbl>, share_transportation_cost <dbl>

Code

anti_join(
  acs_tracts, 
  transportation_tracts, 
  by = c("year", "GEOID", "state", "county", "tract")
) |>
  filter(total_population > 0)

# A tibble: 620 × 10
    year GEOID state county tract total_population white_nh   poc households_est
   <dbl> <chr> <chr> <chr>  <chr>            <dbl>    <dbl> <dbl>          <dbl>
 1  2015 0109… 01    097    0036…              634      395   239              0
 2  2015 0218… 02    185    0003…             3056     2569   487              0
 3  2015 0402… 04    027    9800…              622       44   578              0
 4  2015 0401… 04    013    1134…              255      137   118              0
 5  2015 0401… 04    013    0610…             3373     1472  1901              0
 6  2015 0401… 04    019    0041…             4531     1563  2968              0
 7  2015 0401… 04    013    9804…               10        6     4              0
 8  2015 0607… 06    073    0055…              199      107    92              0
 9  2015 0606… 06    065    9810…             6742     1128  5614              0
10  2015 0603… 06    037    5746…             2142      838  1304              0
# ℹ 610 more rows
# ℹ 1 more variable: households_se <dbl>
…
Cost Quality Control Checks

Missing Data

Code

transportation_county |>
  filter(is.na(share_transportation_cost))

# A tibble: 12,844 × 12
    year state county subgroup           subgroup_type     n count_transit_trips
   <dbl> <chr> <chr>  <chr>              <chr>         <int>               <dbl>
 1  2015 01    001    Neighborhoods of … race-ethnici…    NA                  NA
 2  2015 01    003    Mixed neighborhoo… race-ethnici…    NA                  NA
 3  2015 01    005    White neighborhoo… race-ethnici…    NA                  NA
 4  2015 01    007    Neighborhoods of … race-ethnici…    NA                  NA
 5  2015 01    009    Neighborhoods of … race-ethnici…    NA                  NA
 6  2015 01    009    Mixed neighborhoo… race-ethnici…    NA                  NA
 7  2015 01    011    White neighborhoo… race-ethnici…    NA                  NA
 8  2015 01    019    Neighborhoods of … race-ethnici…    NA                  NA
 9  2015 01    019    Mixed neighborhoo… race-ethnici…    NA                  NA
10  2015 01    021    Neighborhoods of … race-ethnici…    NA                  NA
# ℹ 12,834 more rows
# ℹ 5 more variables: share_transportation_cost <dbl>, households_est <dbl>,
#   households_se <dbl>, households <dbl>, score_transit_trips <dbl>
…
