Transit Trips and Transportation Costs – City
…
# A tibble: 0 × 10
# ℹ 10 variables: year <dbl>, GEOID <chr>, state <chr>, county <chr>,
#   tract <chr>, blkgrps <dbl>, population <dbl>, households <dbl>,
#   count_transit_trips <dbl>, index_transportation_cost <dbl>

Code

anti_join(
  acs_tracts, 
  transportation_tracts, 
  by = c("year", "GEOID", "state", "county", "tract")
) |>
  filter(total_population > 0)

# A tibble: 362 × 12
    year GEOID    state county tract total_population white_nh   poc sample_size
   <dbl> <chr>    <chr> <chr>  <chr>            <dbl>    <dbl> <dbl>       <dbl>
 1  2015 0109700… 01    097    0036…              634      395   239           0
 2  2015 0218500… 02    185    0003…             3056     2569   487           0
 3  2015 0402798… 04    027    9800…              622       44   578           0
 4  2015 0401311… 04    013    1134…              255      137   118           0
 5  2015 0401306… 04    013    0610…             3373     1472  1901           0
 6  2015 0401900… 04    019    0041…             4531     1563  2968           0
 7  2015 0401398… 04    013    9804…               10        6     4           0
 8  2015 0607300… 06    073    0055…              199      107    92           0
 9  2015 0606598… 06    065    9810…             6742     1128  5614           0
10  2015 0603757… 06    037    5746…             2142      838  1304           0
# ℹ 352 more rows
# ℹ 3 more variables: prop_white_nh <dbl>, prop_poc <dbl>, subgroup <chr>
…
tract_place <- tract_place |>
  filter(paste0(state, place) %in% paste0(places$state, places$place))

The CNT data contains tons of tracts not included in our places. Our places include tracts not included in the CNT data.

Code

anti_join(
  combined_tracts, 
  tract_place, 
  by = c("state", "county", "tract")
)

# A tibble: 90,678 × 17
    year GEOID       state county tract  blkgrps population households
   <dbl> <chr>       <chr> <chr>  <chr>    <dbl>      <dbl>      <dbl>
 1  2015 01001020100 01    001    020100       2       1948        697
 2  2015 01001020200 01    001    020200       2       2156        729
 3  2015 01001020300 01    001    020300       2       2968       1152
 4  2015 01001020400 01    001    020400       4       4423       1618
 5  2015 01001020500 01    001    020500       3      10763       4216
 6  2015 01001020600 01    001    020600       2       3851       1198
 7  2015 01001020700 01    001    020700       2       2761       1092
 8  2015 01001020801 01    001    020801       2       3187       1107
 9  2015 01001020802 01    001    020802       4      10915       4010
10  2015 01001020900 01    001    020900       4       5668       2163
# ℹ 90,668 more rows
# ℹ 9 more variables: count_transit_trips <dbl>,
#   index_transportation_cost <dbl>, total_population <dbl>, white_nh <dbl>,
#   poc <dbl>, sample_size <dbl>, prop_white_nh <dbl>, prop_poc <dbl>,
#   subgroup <chr>
…
Transit Trips Quality Control Checks

Missing Data

Code

transportation_city |>
  filter(is.na(count_transit_trips))

# A tibble: 462 × 16
    year state place state_name place_name     population subgroup subgroup_type
   <dbl> <chr> <chr> <chr>      <chr>               <dbl> <chr>    <chr>        
 1  2015 01    03076 Alabama    Auburn city         62059 Neighbo… race-ethnici…
 2  2015 04    04720 Arizona    Avondale city       80684 White n… race-ethnici…
 3  2015 04    07940 Arizona    Buckeye town        62138 Neighbo… race-ethnici…
 4  2015 04    27400 Arizona    Gilbert town       247542 Neighbo… race-ethnici…
 5  2015 04    65000 Arizona    Scottsdale ci…     236839 Neighbo… race-ethnici…
 6  2015 05    23290 Arkansas   Fayetteville …      82830 Neighbo… race-ethnici…
 7  2015 05    23290 Arkansas   Fayetteville …      82830 Mixed n… race-ethnici…
 8  2015 05    35710 Arkansas   Jonesboro city      73907 Neighbo… race-ethnici…
 9  2015 06    00884 California Alhambra city       85551 White n… race-ethnici…
10  2015 06    00884 California Alhambra city       85551 Mixed n… race-ethnici…
# ℹ 452 more rows
# ℹ 8 more variables: n <int>, count_transit_trips <dbl>,
#   index_transportation_cost <dbl>, match_pop <dbl>, match_quality <dbl>,
#   sample_size <dbl>, index_transportation_cost_quality <dbl>,
#   count_transit_trips_quality <dbl>
…
Cost Quality Control Checks

Missing Data

Code

transportation_city |>
  filter(is.na(index_transportation_cost))

# A tibble: 462 × 16
    year state place state_name place_name     population subgroup subgroup_type
   <dbl> <chr> <chr> <chr>      <chr>               <dbl> <chr>    <chr>        
 1  2015 01    03076 Alabama    Auburn city         62059 Neighbo… race-ethnici…
 2  2015 04    04720 Arizona    Avondale city       80684 White n… race-ethnici…
 3  2015 04    07940 Arizona    Buckeye town        62138 Neighbo… race-ethnici…
 4  2015 04    27400 Arizona    Gilbert town       247542 Neighbo… race-ethnici…
 5  2015 04    65000 Arizona    Scottsdale ci…     236839 Neighbo… race-ethnici…
 6  2015 05    23290 Arkansas   Fayetteville …      82830 Neighbo… race-ethnici…
 7  2015 05    23290 Arkansas   Fayetteville …      82830 Mixed n… race-ethnici…
 8  2015 05    35710 Arkansas   Jonesboro city      73907 Neighbo… race-ethnici…
 9  2015 06    00884 California Alhambra city       85551 White n… race-ethnici…
10  2015 06    00884 California Alhambra city       85551 Mixed n… race-ethnici…
# ℹ 452 more rows
# ℹ 8 more variables: n <int>, count_transit_trips <dbl>,
#   index_transportation_cost <dbl>, match_pop <dbl>, match_quality <dbl>,
#   sample_size <dbl>, index_transportation_cost_quality <dbl>,
#   count_transit_trips_quality <dbl>
…
summary(transportation_city$index_transportation_cost)

   Min. 1st Qu.  Median    Mean 3rd Qu.    Max.    NA's 
  8.452  21.480  24.639  24.437  27.306  42.000     462 

Examine extreme values

Code

transportation_city |>
  group_by(year) |>
  slice_max(n = 10, order_by = index_transportation_cost)

# A tibble: 22 × 16
# Groups:   year [2]
    year state place state_name place_name     population subgroup subgroup_type
   <dbl> <chr> <chr> <chr>      <chr>               <dbl> <chr>    <chr>        
 1  2015 48    48768 Texas      Mission city        83298 All      all          
 2  2015 48    48768 Texas      Mission city        83298 Neighbo… race-ethnici…
 3  2015 35    39380 New Mexico Las Cruces ci…     101643 White n… race-ethnici…
 4  2015 48    22660 Texas      Edinburg city       84497 All      all          
 5  2015 48    22660 Texas      Edinburg city       84497 Neighbo… race-ethnici…
 6  2015 48    57200 Texas      Pharr city          76538 All      all          
 7  2015 48    57200 Texas      Pharr city          76538 Neighbo… race-ethnici…
 8  2015 48    45384 Texas      McAllen city       140269 All      all          
 9  2015 48    45384 Texas      McAllen city       140269 Neighbo… race-ethnici…
10  2015 48    10768 Texas      Brownsville c…     183887 All      all          
# ℹ 12 more rows
# ℹ 8 more variables: n <int>, count_transit_trips <dbl>,
#   index_transportation_cost <dbl>, match_pop <dbl>, match_quality <dbl>,
#   sample_size <dbl>, index_transportation_cost_quality <dbl>,
#   count_transit_trips_quality <dbl>
…
