icma.utf8
…
count(joined_data, state_name, county_name, sort = TRUE)

## # A tibble: 1,622 x 3
##    state_name county_name     n
##    <chr>      <chr>       <int>
##  1 IL         Cook           38
##  2 MA         Worcester      28
##  3 CA         Los Angeles    27
##  4 MO         Saint Louis    23
##  5 FL         Palm Beach     21
##  6 MI         Oakland        21
##  7 WI         Dane           21
##  8 MN         Hennepin       20
##  9 PA         Allegheny      20
## 10 IL         Lake           19
## #  with 1,612 more rows
…
